{
  "project_info": {
    "project_number": "346102438487",
    "firebase_url": "https://carhoot-cf06a.firebaseio.com",
    "project_id": "carhoot-cf06a",
    "storage_bucket": "carhoot-cf06a.appspot.com"
  },
  "client": [
    {
      "client_info": {
        "mobilesdk_app_id": "1:346102438487:android:b7d8a33a8a1f237488e112",
        "android_client_info": {
          "package_name": "com.carhoot"
        }
      },
      "oauth_client": [
        {
          "client_id": "346102438487-pao6nm5j2aqd6pbf3rfuumeu601hntu2.apps.googleusercontent.com",
          "client_type": 1,
          "android_info": {
            "package_name": "com.carhoot",
            "certificate_hash": "779134959c48c24b65a522661ebd08bc8c8bc7e4"
          }
        },
        {
          "client_id": "346102438487-hpu50k5mbk0o3rga6rl9l6ka6utge80n.apps.googleusercontent.com",
          "client_type": 1,
          "android_info": {
            "package_name": "com.carhoot",
            "certificate_hash": "13e4dad8d01f4f776af7751319bb52d0855c8f81"
          }
        },
        {
          "client_id": "346102438487-8aln0ubo32ueoimidvkaq9d3lqjgq2j4.apps.googleusercontent.com",
          "client_type": 3
        }
      ],
      "api_key": [
        {
          "current_key": "AIzaSyDmgww9_VOGNcrdsTd8LouVYTLGXToZo0A"
        }
      ],
      "services": {
        "appinvite_service": {
          "other_platform_oauth_client": [
            {
              "client_id": "346102438487-8aln0ubo32ueoimidvkaq9d3lqjgq2j4.apps.googleusercontent.com",
              "client_type": 3
            },
            {
              "client_id": "346102438487-iu3mibpcvhfu4aiib7o77pls2pjltg58.apps.googleusercontent.com",
              "client_type": 2,
              "ios_info": {
                "bundle_id": "org.name.Carhoot"
              }
            }
          ]
        }
      }
    }
  ],
  "configuration_version": "1"
}